%YAML 1.1
%TAG !u! tag:unity3d.com,2011:
--- !u!114 &11400000
MonoBehaviour:
  m_ObjectHideFlags: 0
  m_CorrespondingSourceObject: {fileID: 0}
  m_PrefabInstance: {fileID: 0}
  m_PrefabAsset: {fileID: 0}
  m_GameObject: {fileID: 0}
  m_Enabled: 1
  m_EditorHideFlags: 0
  m_Script: {fileID: 11500000, guid: 6041daea62727df48bf606b70e533b87, type: 3}
  m_Name: MachinGun
  m_EditorClassIdentifier: 
  GunAmmo:
    MagazineSize: 6
    AmmoCount: 6
  bulletSpeed: 12
  FireRate: 0.125
  nextTimeToFire: 5.802759
  image: {fileID: -4685113258269258421, guid: 8f65c83cbf22ea64e9bccf65f776b58f, type: 3}
