%YAML 1.1
%TAG !u! tag:unity3d.com,2011:
--- !u!114 &11400000
MonoBehaviour:
  m_ObjectHideFlags: 0
  m_CorrespondingSourceObject: {fileID: 0}
  m_PrefabInstance: {fileID: 0}
  m_PrefabAsset: {fileID: 0}
  m_GameObject: {fileID: 0}
  m_Enabled: 1
  m_EditorHideFlags: 0
  m_Script: {fileID: 11500000, guid: 48af2168db7a3f64ebe732b616642260, type: 3}
  m_Name: SpreadFireData
  m_EditorClassIdentifier: 
  GunAmmo:
    MagazineSize: 6
    AmmoCount: 6
  bulletSpeed: 10
  FireRate: 15
  nextTimeToFire: 14.101981
  image: {fileID: -9069876016977782061, guid: 8f65c83cbf22ea64e9bccf65f776b58f, type: 3}
  BulletSpread: 20
