%YAML 1.1
%TAG !u! tag:unity3d.com,2011:
--- !u!114 &11400000
MonoBehaviour:
  m_ObjectHideFlags: 0
  m_CorrespondingSourceObject: {fileID: 0}
  m_PrefabInstance: {fileID: 0}
  m_PrefabAsset: {fileID: 0}
  m_GameObject: {fileID: 0}
  m_Enabled: 1
  m_EditorHideFlags: 0
  m_Script: {fileID: 11500000, guid: 5ae519b957bccf74ab3782834087f17d, type: 3}
  m_Name: FlyingEnemy
  m_EditorClassIdentifier: 
  health: 2
  speed: 1
  reward: 5
  name: 
  prefab: {fileID: 6093826564986726027, guid: 7dad5b18966775849b9d8596a49dcbef, type: 3}
  owner: {fileID: 0}
